<svg width="1271" height="926" viewBox="0 0 1271 926" fill="none" xmlns="http://www.w3.org/2000/svg">
<path opacity="0.1" d="M806.142 8.89462C1030.81 -54.515 1356.64 241.895 1356.64 241.895L1413.14 546.895C1413.14 546.895 1236.85 498.104 1123.64 510.895C866.165 539.985 863.957 912.451 605.142 924.895C301.677 939.484 -79.7667 707.169 14.6416 418.395C32.3127 364.343 41.6469 328.78 83.1416 289.895C196.774 183.408 307.188 444.922 460.642 418.395C666.819 382.753 604.773 65.7277 806.142 8.89462Z" fill="url(#paint0_linear)" fill-opacity="0.5"/>
<defs>
<linearGradient id="paint0_linear" x1="1348.64" y1="379" x2="-81.8584" y2="463" gradientUnits="userSpaceOnUse">
<stop stop-color="#FFB075"/>
<stop offset="0.520018" stop-color="#F97BE6"/>
<stop offset="1" stop-color="#9639CF"/>
</linearGradient>
</defs>
</svg>
