<svg width="131" height="131" viewBox="0 0 131 131" fill="none" xmlns="http://www.w3.org/2000/svg">
<circle cx="65.5" cy="65.5" r="62.5" stroke="#0E37CC" stroke-width="5" stroke-linecap="round"/>
<circle cx="65.5" cy="65.5" r="13.5" fill="#0E37CC" stroke="#0E37CC" stroke-width="5" stroke-linecap="round"/>
<circle r="3.5" transform="matrix(-1 0 0 1 92.5 65.5)" fill="#0E37CC" stroke="#0E37CC" stroke-width="5" stroke-linecap="round"/>
<circle r="5.5" transform="matrix(-1 0 0 1 90.5 40.5)" stroke="#0E37CC" stroke-width="5" stroke-linecap="round"/>
<circle r="5.5" transform="matrix(-1 0 0 1 90.5 91.5)" stroke="#0E37CC" stroke-width="5" stroke-linecap="round"/>
<circle r="5.5" transform="matrix(-1 0 0 1 40.5 40.5)" stroke="#0E37CC" stroke-width="5" stroke-linecap="round"/>
<circle r="5.5" transform="matrix(-1 0 0 1 40.5 91.5)" stroke="#0E37CC" stroke-width="5" stroke-linecap="round"/>
<path d="M42.5 65.5H65.5M88.5 65.5H65.5M65.5 65.5L86 45M65.5 65.5V43M65.5 65.5L45 45M65.5 65.5V88.5M65.5 65.5L45 86M65.5 65.5L86 86" stroke="#0E37CC" stroke-width="5" stroke-linecap="round"/>
<circle r="3.5" transform="matrix(-1 0 0 1 38.5 65.5)" fill="#0E37CC" stroke="#0E37CC" stroke-width="5" stroke-linecap="round"/>
<circle r="3.5" transform="matrix(-1 0 0 1 65.5 92.5)" fill="#0E37CC" stroke="#0E37CC" stroke-width="5" stroke-linecap="round"/>
<circle r="3.5" transform="matrix(-1 0 0 1 65.5 39.5)" fill="#0E37CC" stroke="#0E37CC" stroke-width="5" stroke-linecap="round"/>
</svg>
